{
  "name": "haru__216_363_225t_203X_201[_203c__203C_203_223_203__201[_203g_t08",
  "model": "haru__216_363_225t_203X_201[_203c__203C_203_223_203__201[_203g_t08_old.moc",
  "textures": [
    "haru__216_363_225t_203X_201[_203c__203C_203_223_203__201[_203g_t08.2048_old/texture_00.png",
    "haru__216_363_225t_203X_201[_203c__203C_203_223_203__201[_203g_t08.2048_old/texture_01.png",
    "haru__216_363_225t_203X_201[_203c__203C_203_223_203__201[_203g_t08.2048_old/texture_02.png",
    "haru__216_363_225t_203X_201[_203c__203C_203_223_203__201[_203g_t08.2048_old/texture_03.png"
  ],
  "layout":
  {
    "center_x":0,
    "y":2.0,
    "width":2.5
  },
  "hit_areas": [
    {
      "name": "head",
      "id": "ArtMesh49",
      "motion": "tap_body"
    },
    {
      "name": "body",
      "id": "ArtMesh65",
      "motion": "dont touch"
    },
    {
      "name": "Lower body",
      "id": "ArtMesh79",
      "motion": "tap_body"
    }
  ],
  "motions": {
    "idle": [
      {
        "file": "motion/normal/haru_g_idle.mtn",
        "weight": 1
      }
    ],
    "tap_body": [
      {
        "file": "motion/normal/haru_g_idle.mtn",
        "weight": 1
      },
      {
        "file": "motion/normal/haru_g_m01.mtn",
        "weight": 1
      },
      {
        "file": "motion/normal/haru_g_m02.mtn",
        "weight": 1
      },
      {
        "file": "motion/normal/haru_g_m03.mtn",
        "weight": 1
      },
      {
        "file": "motion/normal/haru_g_m04.mtn",
        "weight": 1
      },
      {
        "file": "motion/normal/haru_g_m05.mtn",
        "weight": 1
      },
      {
        "file": "motion/normal/haru_g_m06.mtn",
        "weight": 1
      },
      {
        "file": "motion/normal/haru_g_m07.mtn",
        "weight": 1
      },
      {
        "file": "motion/normal/haru_g_m08.mtn",
        "weight": 1
      },
      {
        "file": "motion/normal/haru_g_m09.mtn",
        "weight": 1
      },
      {
        "file": "motion/normal/haru_g_m10.mtn",
        "weight": 1
      },
      {
        "file": "motion/normal/haru_g_m11.mtn",
        "weight": 1
      },
      {
        "file": "motion/normal/haru_g_m12.mtn",
        "weight": 1
      },
      {
        "file": "motion/normal/haru_g_m13.mtn",
        "weight": 1
      },
      {
        "file": "motion/normal/haru_g_m14.mtn",
        "weight": 1
      },
      {
        "file": "motion/normal/haru_g_m15.mtn",
        "weight": 1
      },
      {
        "file": "motion/normal/haru_g_m16.mtn",
        "weight": 1
      },
      {
        "file": "motion/normal/haru_g_m17.mtn",
        "weight": 1
      },
      {
        "file": "motion/normal/haru_g_m18.mtn",
        "weight": 1
      },
      {
        "file": "motion/normal/haru_g_m19.mtn",
        "weight": 1
      },
      {
        "file": "motion/normal/haru_g_m20.mtn",
        "weight": 1
      },
      {
        "file": "motion/normal/haru_g_m21.mtn",
        "weight": 1
      },
      {
        "file": "motion/normal/haru_g_m22.mtn",
        "weight": 1
      },
      {
        "file": "motion/normal/haru_g_m23.mtn",
        "weight": 1
      },
      {
        "file": "motion/normal/haru_g_m24.mtn",
        "weight": 1
      },
      {
        "file": "motion/normal/haru_g_m25.mtn",
        "weight": 1
      },
      {
        "file": "motion/normal/haru_g_m26.mtn",
        "weight": 1
      },
      {
        "file": "motion/normal/haru_g_m28.mtn",
        "weight": 1
      },
      {
        "file": "motion/normal/haru_g_m27.mtn",
        "weight": 1
      },
      {
        "file": "motion/normal/haru_g_m29.mtn",
        "weight": 1
      },
      {
        "file": "motion/normal/haru_g_m06_reverse.mtn",
        "weight": 1
      },
      {
        "file": "motion/saying/haru_g_idle.mtn",
        "weight": 1
      },
      {
        "file": "motion/saying/haru_g_m01.mtn",
        "weight": 1
      },
      {
        "file": "motion/saying/haru_g_m02.mtn",
        "weight": 1
      },
      {
        "file": "motion/saying/haru_g_m03.mtn",
        "weight": 1
      },
      {
        "file": "motion/saying/haru_g_m04.mtn",
        "weight": 1
      },
      {
        "file": "motion/saying/haru_g_m05.mtn",
        "weight": 1
      },
      {
        "file": "motion/saying/haru_g_m06.mtn",
        "weight": 1
      },
      {
        "file": "motion/saying/haru_g_m07.mtn",
        "weight": 1
      },
      {
        "file": "motion/saying/haru_g_m08.mtn",
        "weight": 1
      },
      {
        "file": "motion/saying/haru_g_m09.mtn",
        "weight": 1
      },
      {
        "file": "motion/saying/haru_g_m10.mtn",
        "weight": 1
      },
      {
        "file": "motion/saying/haru_g_m11.mtn",
        "weight": 1
      },
      {
        "file": "motion/saying/haru_g_m12.mtn",
        "weight": 1
      },
      {
        "file": "motion/saying/haru_g_m13.mtn",
        "weight": 1
      },
      {
        "file": "motion/saying/haru_g_m14.mtn",
        "weight": 1
      },
      {
        "file": "motion/saying/haru_g_m15.mtn",
        "weight": 1
      },
      {
        "file": "motion/saying/haru_g_m16.mtn",
        "weight": 1
      },
      {
        "file": "motion/saying/haru_g_m17.mtn",
        "weight": 1
      },
      {
        "file": "motion/saying/haru_g_m18.mtn",
        "weight": 1
      },
      {
        "file": "motion/saying/haru_g_m19.mtn",
        "weight": 1
      },
      {
        "file": "motion/saying/haru_g_m20.mtn",
        "weight": 1
      },
      {
        "file": "motion/saying/haru_g_m21.mtn",
        "weight": 1
      },
      {
        "file": "motion/saying/haru_g_m22.mtn",
        "weight": 1
      },
      {
        "file": "motion/saying/haru_g_m23.mtn",
        "weight": 1
      },
      {
        "file": "motion/saying/haru_g_m24.mtn",
        "weight": 1
      },
      {
        "file": "motion/saying/haru_g_m25.mtn",
        "weight": 1
      },
      {
        "file": "motion/saying/haru_g_m26.mtn",
        "weight": 1
      },
      {
        "file": "motion/saying/haru_g_m06_reverse.mtn",
        "weight": 1
      }
    ],
    "dont touch": [
      {
        "file": "motion/normal/haru_g_m29.mtn",
        "weight": 1
      }
    ],
    "saying": [
      {
        "file": "motion/normal/haru_g_m28.mtn",
        "weight": 1
      },
      {
        "file": "motion/normal/haru_g_m27.mtn",
        "weight": 1
      }
    ],
    "hearing error": [
      {
        "file": "motion/normal/haru_g_m12.mtn",
        "weight": 1
      }
    ]
  },
  "expressions": [
    {
      "name": "F00.exp.json",
      "file": "exp/F00.exp.json"
    },
    {
      "name": "F00.exp.json",
      "file": "exp/F00.exp.json"
    },
    {
      "name": "F01.exp.json",
      "file": "exp/F01.exp.json"
    },
    {
      "name": "F02.exp.json",
      "file": "exp/F02.exp.json"
    },
    {
      "name": "F03.exp.json",
      "file": "exp/F03.exp.json"
    },
    {
      "name": "F04.exp.json",
      "file": "exp/F04.exp.json"
    },
    {
      "name": "F05.exp.json",
      "file": "exp/F05.exp.json"
    },
    {
      "name": "F06.exp.json",
      "file": "exp/F06.exp.json"
    },
    {
      "name": "F07.exp.json",
      "file": "exp/F07.exp.json"
    }
  ],
  "pose": "haru__216_363_225t_203X_201[_203c__203C_203_223_203__201[_203g_t08.pose.json"
}